<svg xmlns="http://www.w3.org/2000/svg" xmlns:xlink="http://www.w3.org/1999/xlink" width="488" height="75" viewBox="0 0 488 75">
  <defs>
    <clipPath id="clip-path">
      <rect id="Rechteck_1" data-name="Rechteck 1" width="74.4" height="74.9" transform="translate(2.8 2.8)"/>
    </clipPath>
    <clipPath id="clip-path-5">
      <rect id="Rechteck_5" data-name="Rechteck 5" width="487.8" height="74.9" transform="translate(2.8 2.8)"/>
    </clipPath>
    <clipPath id="clip-MB-Logo-Neu_Blau">
      <rect width="488" height="75"/>
    </clipPath>
  </defs>
  <g id="MB-Logo-Neu_Blau" clip-path="url(#clip-MB-Logo-Neu_Blau)">
    <g id="logo-wiso-meinbuero-rgb" transform="translate(-2.8 -2.8)">
      <g id="Gruppe_10" data-name="Gruppe 10">
        <g id="Gruppe_6" data-name="Gruppe 6" clip-path="url(#clip-path)">
          <path id="Pfad_15" data-name="Pfad 15" d="M77.7,34.4V3.3a.472.472,0,0,0-.5-.5H46.1a.472.472,0,0,0-.5.5v7.5a.634.634,0,0,0,.5.6,29.022,29.022,0,0,1,23,23,.634.634,0,0,0,.6.5h7.5a.536.536,0,0,0,.5-.5h0" fill="#023e84"/>
        </g>
        <g id="Gruppe_7" data-name="Gruppe 7" clip-path="url(#clip-path)">
          <path id="Pfad_16" data-name="Pfad 16" d="M34.9,34.4V3.3a.472.472,0,0,0-.5-.5H26.9a.634.634,0,0,0-.6.5c-1.2,10.6-11.5,20.9-23,23a.634.634,0,0,0-.5.6v7.5a.472.472,0,0,0,.5.5H34.4a.472.472,0,0,0,.5-.5" fill="#023e84"/>
        </g>
        <g id="Gruppe_8" data-name="Gruppe 8" clip-path="url(#clip-path)">
          <path id="Pfad_17" data-name="Pfad 17" d="M34.9,77.2V69.7a.634.634,0,0,0-.5-.6c-10.6-1.3-20.9-11.5-23-23a.634.634,0,0,0-.6-.5H3.3a.472.472,0,0,0-.5.5h0V77.2a.472.472,0,0,0,.5.5H34.4a.472.472,0,0,0,.5-.5" fill="#023e84"/>
        </g>
        <g id="Gruppe_9" data-name="Gruppe 9" clip-path="url(#clip-path)">
          <path id="Pfad_18" data-name="Pfad 18" d="M77.7,53.6V46.1a.472.472,0,0,0-.5-.5H46.1a.472.472,0,0,0-.5.5V77.2a.472.472,0,0,0,.5.5h7.5a.634.634,0,0,0,.6-.5,29.022,29.022,0,0,1,23-23,.56.56,0,0,0,.5-.6" fill="#fa7d19"/>
        </g>
      </g>
      <g id="Gruppe_13" data-name="Gruppe 13">
        <g id="Gruppe_11" data-name="Gruppe 11" clip-path="url(#clip-path-5)">
          <path id="Pfad_19" data-name="Pfad 19" d="M223.1,55.6c-8,0-9.8-4.9-9.8-15.1S215.2,25,223.1,25s9.7,5.4,9.7,15.5c0,10.4-1.8,15.1-9.7,15.1m0,5.9c12.8,0,16.7-7,16.7-21,0-13.8-3.8-21.4-16.7-21.4-12.8,0-16.7,7.7-16.7,21.4-.1,13.8,3.8,21,16.7,21m-35,0c8.1,0,13.7-3.9,13.7-12.9,0-7-3.1-9.3-11.7-11.7-7-2-9.2-2.8-9.2-6.6,0-3.5,2.5-5.4,7.6-5.4,2.5,0,8.3.6,11.9,1l.5-5.5a87.728,87.728,0,0,0-13-1.4c-8.2,0-13.7,3.5-13.7,11.8,0,7.1,3.8,9.8,12.7,12.1,6.3,1.6,8.2,2.8,8.2,6.2,0,4.3-2.4,6.5-7.4,6.5-3.1,0-8.8-.6-12.4-1l-.7,5.3a95.909,95.909,0,0,0,13.5,1.6m-26.9-.7h6.7V19.7h-6.7ZM148.9,19.7,143,55h-1.3L134,19.8h-7.9L118.3,55H117l-5.9-35.3h-7l8,41.1H123l7-33,7,33h10.8l8.1-41.1Z" fill="#023e84"/>
        </g>
        <g id="Gruppe_12" data-name="Gruppe 12" clip-path="url(#clip-path-5)">
          <path id="Pfad_20" data-name="Pfad 20" d="M477.2,55.9c-5.5,0-6.7-3.3-6.7-10.3,0-6.9,1.5-9.9,6.7-9.9,5.3,0,6.7,3,6.7,9.9.1,7-1.1,10.3-6.7,10.3m0,5.6c10.3,0,13.4-5.9,13.4-15.8,0-9.7-3.3-15.5-13.4-15.5-10,0-13.4,5.8-13.4,15.5.1,9.9,3.2,15.8,13.4,15.8m-32.4-.7h6.5V39.9a49.066,49.066,0,0,1,10.1-3.1V30.2a31.659,31.659,0,0,0-10.1,4.2V30.9h-6.5Zm-22.3.7c3.4,0,5.8-1,8.8-2.5v1.9h6.5v-30h-6.5V54a16.568,16.568,0,0,1-6.8,1.6c-4.6,0-5-2.5-5-9.1V30.8H413V46.5c-.3,9.9,1.5,15,9.5,15m6.1-37.1h6.3V17.6h-6.3Zm-12.5,0h6.2V17.6h-6.2ZM384.7,55V42.9h8.9c3.2,0,6.7,1.3,6.7,5.9,0,4.9-2.5,6.2-6.6,6.2h-9Zm0-17.8V25.5h8.5c4.1,0,6.1,1.7,6.1,5.7s-1.7,5.9-5.8,5.9h-8.8ZM378,60.8h16.1c8,0,13.1-3.2,13.1-11.6,0-5.6-2.3-8.2-5.8-9.5,3.2-1.8,4.8-4.3,4.8-9.2,0-7.6-4.4-10.7-12.5-10.7H378Zm-32.6,0h6.5V37.6a17.44,17.44,0,0,1,6.8-1.6c4.6,0,5.3,2.9,5.3,8.9V60.8h6.5V44.7c0-9.8-2-14.6-10.4-14.6a18.427,18.427,0,0,0-8.2,2.5V30.7h-6.5V60.8Zm-13.7,0h6.5v-30h-6.5Zm0-35h6.5v-7h-6.5ZM307.3,43.5c.1-5.7,2-8,6.4-8s6.1,2,6.1,8Zm5.9,18a71.892,71.892,0,0,0,12.2-1.4l-.1-4.9c-2.7.2-7.6.5-11.1.5-5,0-6.8-2.3-6.8-7.1h18.5l.4-4.7c0-9.4-4.2-13.7-12.6-13.7-8.3,0-13,5-13,16,0,10.5,3.5,15.3,12.5,15.3m-60-.7h6.7V27.2h.9l9.7,32h7l9.7-32h.9V60.9h6.7V19.7H283.1l-9.1,32-9.1-32H253.3V60.8Z" fill="#023e84"/>
        </g>
      </g>
    </g>
  </g>
</svg>
